<svg xmlns="http://www.w3.org/2000/svg" viewBox="0 0 253.5 51.1">
  <style>
    .st0{fill:#fff}
  </style>
  <path class="st0" d="M97.6 9.9L82.3 25.8l16.6 16.9v.3h-6.7L77.4 27.9v15.2h-5.3V9.8h5.3v14.4L91 9.8h6.6v.1zm29.6-.1v28.3h17.5V43h-22.9V9.8h5.4zM200 26.5c0 9-5.5 17.2-17 17.2-11.6 0-17-8.4-17-17.2 0-10.1 7.1-17.4 17.1-17.4 11.3.1 16.9 8.5 16.9 17.4zm-17.1 12.3c8.3 0 11.7-5.8 11.7-12.2 0-6.1-3.5-12.5-11.6-12.6-7.7 0-11.8 5.4-11.8 12.6.1 5.9 3.5 12.2 11.7 12.2zm65.3-5.4V9.8h5.3v33.3h-4l-18.9-23.5v23.5h-5.4V9.8h4.1l18.9 23.6z"/>
  <circle cx="7" cy="7" r="7" fill="#fff"/>
  <circle cx="7" cy="43.1" r="7" fill="#fff"/>
  <path d="M39.1 35.4c-4.8-.6-9.1-4.1-9.7-9-.7-5 2.6-9.9 7.4-11.3 1.2-.4 2.4-.4 3.6-.8 1.2-.4 2.3-1 3.2-1.9 2-2.1 2.6-5.3 1.5-7.9-1.7-4.2-7-5.8-10.8-3.4-2.4 1.5-3.1 4-3.5 6.6-.4 2.9-1.4 5.5-3.7 7.4-2.3 2-5.1 2.1-8 2.7-2.5.6-4.6 2.2-5.5 4.7-.9 2.6-.4 5.6 1.5 7.6 2 2.1 4.9 2.2 7.6 3 2.7.7 5.1 2.3 6.6 4.8 1.4 2.5 1.2 5.3 2.3 7.9 2.1 5.1 9.2 6.1 12.6 1.7 2.8-3.6 1.6-9.2-2.5-11.2-.9-.5-1.9-.7-2.9-.8.3 0 .7.1 1 .1-.3-.1-.5-.2-.7-.2-5.5-.7 1.8.2 0 0z" fill="#fff"/>
  <g>
    <linearGradient id="SVGID_4_" gradientUnits="userSpaceOnUse" x1="151.219" y1="26.545" x2="214.195" y2="26.545" gradientTransform="rotate(-45.001 182 25.84)">
      <stop offset="0" stop-color="#00074d"/>
      <stop offset="1" stop-color="#143da1"/>
    </linearGradient>
    <path d="M206.3 13.9l-35.2 35.2c-2.6 2.6-6.8 2.6-9.3 0l-2.1-2.1c-2.6-2.6-2.6-6.8 0-9.3l35.2-35.2c2.6-2.6 6.8-2.6 9.3 0l2.1 2.1c2.6 2.6 2.6 6.8 0 9.3z" fill="url(#SVGID_4_)"/>
    <path class="st0" d="M165.9 35.9l6.7 6.7 4.1-4.1.3.3-4.4 4.4-7-7 .3-.3zM181.2 34.6l-7-7 .3-.3 7 7-.3.3zM178.7 23.1l5.6-5.6.3.3-2.6 2.6 6.7 6.7-.3.3-6.7-6.7-2.6 2.6-.4-.2zM200.1 15.1l.3.3-4.9 4.9-7-7 4.7-4.7.3.3-4.4 4.4 3 3 4.2-4.2.3.3-4.2 4.2 3.1 3.1 4.6-4.6z"/>
  </g>
</svg>
