<svg xmlns="http://www.w3.org/2000/svg" viewBox="0 0 540.8 40.8">
  <style>
    .st2{fill:#fff}.st4{fill:#5565af}.st5{opacity:4.000000e-02;fill:#fff;enable-background:new}.st6{fill:#ea564b}.st9{fill:#f3f4f4}.st11{opacity:8.000000e-02;fill:#fff;enable-background:new}.st12{fill:#f8f8f9}.st13{fill:#009fda}.st16{fill:#e6a124}.st19{fill:#424143}
  </style>
  <path fill="#5ec1ec" d="M220 35.8c0 2.8-2.2 5-5 5h-50c-2.8 0-5-2.2-5-5v-30c0-2.8 2.2-5 5-5h50c2.8 0 5 2.2 5 5v30z"/>
  <path fill="#5bbbe6" d="M218.5 2.3c.9.9 1.5 2.2 1.5 3.5v30c0 1.3-.5 2.6-1.5 3.5-.9.9-2.2 1.5-3.5 1.5h-50c-1.3 0-2.6-.5-3.5-1.5l57-37z"/>
  <path d="M177.6 25.7l-.5-1.7h-3l-.5 1.7h-2.8l3-9.3h3.3l3.1 9.3h-2.6zm-1-3.8l-.4-1.5c-.1-.4-.2-.9-.3-1.3l-.3-1.2c0 .2-.1.6-.2 1.1s-.4 1.5-.7 2.9h1.9zm8.7 3.8l-1.9-6.7h-.1c.1 1.1.1 2 .1 2.7v4h-2.2v-9.3h3.3l1.9 6.6h.1l1.9-6.6h3.3v9.3h-2.3v-4.1-.7c0-.3 0-.9.1-1.9h-.1l-1.9 6.7h-2.2zm13.8 0h-5.5v-9.3h5.5v2h-3v1.5h2.8v2h-2.8v1.8h3v2zm10 0h-2.9l-1.8-2.9-1.8 2.9h-2.8l3.1-4.7-2.9-4.5h2.8l1.7 2.9 1.6-2.9h2.9l-2.9 4.7 3 4.5z" class="st2"/>
  <path d="M177.6 25.7l-.5-1.7h-3l-.5 1.7h-2.8l3-9.3h3.3l3.1 9.3h-2.6zm-1-3.8l-.4-1.5c-.1-.4-.2-.9-.3-1.3l-.3-1.2c0 .2-.1.6-.2 1.1s-.4 1.5-.7 2.9h1.9zm8.7 3.8l-1.9-6.7h-.1c.1 1.1.1 2 .1 2.7v4h-2.2v-9.3h3.3l1.9 6.6h.1l1.9-6.6h3.3v9.3h-2.3v-4.1-.7c0-.3 0-.9.1-1.9h-.1l-1.9 6.7h-2.2zm13.8 0h-5.5v-9.3h5.5v2h-3v1.5h2.8v2h-2.8v1.8h3v2zm10 0h-2.9l-1.8-2.9-1.8 2.9h-2.8l3.1-4.7-2.9-4.5h2.8l1.7 2.9 1.6-2.9h2.9l-2.9 4.7 3 4.5z" class="st2"/>
  <path fill="#9bcee0" d="M215 1.8c2.2 0 4 1.8 4 4v30c0 2.2-1.8 4-4 4h-50c-2.2 0-4-1.8-4-4v-30c0-2.2 1.8-4 4-4h50m0-1h-50c-2.8 0-5 2.2-5 5v30c0 2.8 2.2 5 5 5h50c2.8 0 5-2.2 5-5v-30c0-2.8-2.2-5-5-5z"/>
  <path d="M140 35.8c0 2.8-2.2 5-5 5H85c-2.8 0-5-2.2-5-5v-30c0-2.8 2.2-5 5-5h50c2.8 0 5 2.2 5 5v30z" class="st4"/>
  <path d="M138.5 2.3c.9.9 1.5 2.2 1.5 3.5v30c0 1.3-.5 2.6-1.5 3.5-.9.9-2.2 1.5-3.5 1.5H85c-1.3 0-2.6-.5-3.5-1.5l57-37z" class="st5"/>
  <path d="M110 14.2c-1.9-2.2-4.6-3.4-7.5-3.4-5.5 0-10 4.5-10 10s4.5 10 10 10c3 0 5.7-1.3 7.5-3.4-1.6-1.8-2.5-4.1-2.5-6.6s.9-4.8 2.5-6.6z" class="st6"/>
  <path d="M110 14.2c-1.6 1.8-2.5 4.1-2.5 6.6s.9 4.8 2.5 6.6c1.6-1.8 2.5-4.1 2.5-6.6s-.9-4.8-2.5-6.6z" class="st6"/>
  <path fill="#e9d419" d="M117.5 10.8c-3.6 0-6.9 1.9-8.6 5h2.3c.4.6.6 1.3.9 2h-4c-.2.7-.3 1.3-.4 2h4.9c0 .3.1.7.1 1 0 .3 0 .7-.1 1h-4.9c.1.7.2 1.4.4 2h4.1c-.2.7-.5 1.4-.9 2H109c1.8 3.1 5.1 5 8.6 5 5.5 0 10-4.5 10-10-.1-5.5-4.6-10-10.1-10z"/>
  <path fill="#7684b7" d="M135 1.8c2.2 0 4 1.8 4 4v30c0 2.2-1.8 4-4 4H85c-2.2 0-4-1.8-4-4v-30c0-2.2 1.8-4 4-4h50m0-1H85c-2.8 0-5 2.2-5 5v30c0 2.8 2.2 5 5 5h50c2.8 0 5-2.2 5-5v-30c0-2.8-2.2-5-5-5z"/>
  <path d="M300 35.8c0 2.8-2.2 5-5 5h-50c-2.8 0-5-2.2-5-5v-30c0-2.8 2.2-5 5-5h50c2.8 0 5 2.2 5 5v30z" class="st9"/>
  <path d="M257 30.8h-8v-15c0-2.8 3.2-5 6-5h6v15c0 2.8-1.2 5-4 5z" class="st4"/>
  <path d="M271 30.8h-8v-15c0-2.8 3.2-5 6-5h6v15c0 2.8-1.2 5-4 5z" class="st6"/>
  <path fill="#99cd76" d="M285 30.8h-8v-15c0-2.8 3.2-5 6-5h6v15c0 2.8-1.2 5-4 5z"/>
  <path d="M298.5 2.3c.9.9 1.5 2.2 1.5 3.5v30c0 1.3-.5 2.6-1.5 3.5-.9.9-2.2 1.5-3.5 1.5h-50c-1.3 0-2.6-.5-3.5-1.5l57-37z" class="st11"/>
  <path d="M295 1.8c2.2 0 4 1.8 4 4v30c0 2.2-1.8 4-4 4h-50c-2.2 0-4-1.8-4-4v-30c0-2.2 1.8-4 4-4h50m0-1h-50c-2.8 0-5 2.2-5 5v30c0 2.8 2.2 5 5 5h50c2.8 0 5-2.2 5-5v-30c0-2.8-2.2-5-5-5z" class="st12"/>
  <g>
    <path d="M460 35.8c0 2.8-2.2 5-5 5h-50c-2.8 0-5-2.2-5-5v-30c0-2.8 2.2-5 5-5h50c2.8 0 5 2.2 5 5v30z" class="st9"/>
    <circle cx="426.8" cy="20.8" r="10" class="st13"/>
    <path d="M426 10.8c5 0 10 4.5 10 10s-5 10-10 10v-20z" class="st13"/>
    <path d="M426 30.8v-20h7.2c5 0 10 4.5 10 10s-5 10-10 10H426z" class="st13"/>
    <circle cx="426.8" cy="20.8" r="9.4" class="st9"/>
    <path d="M431.4 20.8c0-2.7-2.4-5-4.4-5.6v11.2c2-.6 4.4-2.9 4.4-5.6zm-11.8 0c0 2.7 2.4 5 4.4 5.6V15.2c-2 .6-4.4 2.9-4.4 5.6z" class="st13"/>
    <path d="M458.5 2.3c.9.9 1.5 2.2 1.5 3.5v30c0 1.3-.5 2.6-1.5 3.5-.9.9-2.2 1.5-3.5 1.5h-50c-1.3 0-2.6-.5-3.5-1.5l57-37z" class="st11"/>
    <path d="M455 1.8c2.2 0 4 1.8 4 4v30c0 2.2-1.8 4-4 4h-50c-2.2 0-4-1.8-4-4v-30c0-2.2 1.8-4 4-4h50m0-1h-50c-2.8 0-5 2.2-5 5v30c0 2.8 2.2 5 5 5h50c2.8 0 5-2.2 5-5v-30c0-2.8-2.2-5-5-5z" class="st12"/>
  </g>
  <g>
    <path fill="#fff9f0" d="M380 35.8c0 2.8-2.2 5-5 5h-50c-2.8 0-5-2.2-5-5v-30c0-2.8 2.2-5 5-5h50c2.8 0 5 2.2 5 5v30z"/>
    <path fill="#414042" d="M335.1 20.7c0 1-.3 1.8-.9 2.3-.6.5-1.4.8-2.5.8H330v-6.1h1.9c1 0 1.8.3 2.3.8.7.6.9 1.3.9 2.2zm-1.3.1c0-1.3-.6-2-1.7-2h-.7v4h.6c1.2 0 1.8-.7 1.8-2zm2.4 3v-6.1h1.3v6.1h-1.3zm6.4-1.7c0 .6-.2 1-.6 1.3-.4.3-.9.5-1.6.5-.6 0-1.2-.1-1.7-.4v-1.2c.3.2.7.3 1 .4.3.1.5.1.8.1.3 0 .5-.1.7-.2.1-.1.2-.3.2-.5 0-.1 0-.2-.1-.3l-.3-.3c-.3-.2-.5-.3-.8-.4-.4-.2-.6-.3-.8-.5-.2-.2-.3-.3-.4-.6s-.2-.5-.2-.8c0-.5.2-1 .5-1.3.4-.3.9-.5 1.5-.5.3 0 .6 0 .9.1l.9.3-.4 1c-.3-.1-.5-.2-.8-.3-.2-.1-.4-.1-.6-.1-.2 0-.4.1-.6.2-.1.1-.2.3-.2.4 0 .1 0 .2.1.3.1.1.1.2.3.2s.4.2.8.4c.6.3 1 .5 1.2.8.1.7.2 1 .2 1.4zm3.7-3.4c-.5 0-.9.2-1.1.5-.3.4-.4.9-.4 1.5 0 1.4.5 2 1.5 2 .4 0 .9-.1 1.6-.3v1.1c-.5.2-1.1.3-1.7.3-.9 0-1.6-.3-2-.8-.5-.5-.7-1.3-.7-2.3 0-.6.1-1.2.3-1.7.2-.5.6-.8 1-1.1.4-.3.9-.4 1.5-.4s1.2.1 1.8.4l-.4 1c-.2-.1-.5-.2-.7-.3-.2.2-.4.1-.7.1zm11.9-.9h1.3l-2.1 6.1H356l-2.1-6.1h1.3l1.1 3.6c.1.4.2.9.3 1.3 0-.3.1-.7.3-1.3l1.3-3.6zm5.6 6h-3.5v-6.1h3.5v1.1h-2.2v1.3h2.1v1.1h-2.1v1.6h2.2v1zm2.5-2.3v2.3H365v-6.1h1.8c.8 0 1.4.1 1.8.5.4.3.6.8.6 1.4 0 .4-.1.7-.3 1-.2.3-.5.5-.8.7.6.9 1.2 1.8 1.8 2.6h-1.4l-1.5-2.3-.7-.1zm0-1h.4c.4 0 .7-.1.9-.2.2-.1.3-.4.3-.6 0-.3-.1-.5-.3-.6s-.5-.2-.9-.2h-.4v1.6z"/>
    <circle cx="351.1" cy="20.8" r="3" class="st16"/>
    <path d="M380 28.3v7.5c0 .7-.1 1.3-.4 1.9-.5 1.2-1.5 2.2-2.7 2.7-.6.3-1.3.4-1.9.4h-44.9L380 28.3z" class="st16"/>
    <path d="M378.5 2.3c.9.9 1.5 2.2 1.5 3.5v30c0 1.3-.5 2.6-1.5 3.5-.9.9-2.2 1.5-3.5 1.5h-50c-1.3 0-2.6-.5-3.5-1.5l57-37z" class="st11"/>
    <path fill="#f7f5f2" d="M375 1.8c2.2 0 4 1.8 4 4v30c0 2.2-1.8 4-4 4h-50c-2.2 0-4-1.8-4-4v-30c0-2.2 1.8-4 4-4h50m0-1h-50c-2.8 0-5 2.2-5 5v30c0 2.8 2.2 5 5 5h50c2.8 0 5-2.2 5-5v-30c0-2.8-2.2-5-5-5z"/>
  </g>
  <g>
    <path d="M60 35.8c0 2.8-2.2 5-5 5H5c-2.8 0-5-2.2-5-5v-30C0 3 2.2.8 5 .8h50c2.8 0 5 2.2 5 5v30z" class="st9"/>
    <path d="M1 10.8v-5C1 3 3.2.8 6 .8h48c2.8 0 5 2.2 5 5v5" class="st4"/>
    <path d="M59 30.8v5c0 2.8-2.2 4-5 4H6c-2.8 0-5-1.2-5-4v-5" class="st16"/>
    <path d="M17.4 24.2c.4-1.1.7-1.9.9-2.2l3.4-6.9h2.5l-5.8 11.4h-2.6l-1-11.4h2.3l.4 6.9v1c-.1.4-.1.8-.1 1.2zm5.7 2.3l2.4-11.4h2.4l-2.4 11.4h-2.4zm12.1-3.4c0 1.1-.4 1.9-1.2 2.6-.8.6-1.8.9-3.1.9-1.2 0-2.1-.2-2.8-.7v-2.1c1 .6 1.9.8 2.8.8.6 0 1-.1 1.4-.3.3-.2.5-.5.5-.9 0-.2 0-.4-.1-.6-.1-.2-.2-.3-.3-.5-.1-.1-.5-.4-1-.8-.7-.5-1.2-1-1.5-1.5-.3-.5-.4-1.1-.4-1.6 0-.7.2-1.3.5-1.8s.8-.9 1.4-1.2c.6-.3 1.3-.4 2.1-.4 1.1 0 2.2.3 3.1.8l-.9 1.8c-.8-.4-1.6-.6-2.2-.6-.4 0-.8.1-1.1.4-.3.2-.4.5-.4.9 0 .3.1.6.3.8.2.2.6.6 1.2.9.6.4 1.1.9 1.4 1.4.1.5.3 1.1.3 1.7zm7.6.7h-3.7l-1.3 2.7h-2.5l6-11.5h2.9l1.1 11.5H43l-.2-2.7zm-.1-2l-.2-2.8c-.1-.7-.1-1.3-.1-2v-.3c-.2.6-.5 1.3-.9 2l-1.5 3h2.7z" class="st4"/>
    <path d="M58.5 2.3c1 .9 1.5 2.2 1.5 3.5v30c0 1.3-.5 2.6-1.5 3.5-.9.9-2.2 1.5-3.5 1.5H5c-1.3 0-2.6-.5-3.5-1.5l57-37z" class="st5"/>
    <path d="M55 1.8c2.2 0 4 1.8 4 4v30c0 2.2-1.8 4-4 4H5c-2.2 0-4-1.8-4-4v-30c0-2.2 1.8-4 4-4h50m0-1H5C2.2.8 0 3 0 5.8v30c0 2.8 2.2 5 5 5h50c2.8 0 5-2.2 5-5v-30c0-2.8-2.2-5-5-5z" class="st12"/>
  </g>
  <g>
    <path fill="#cdcdcd" d="M540 35c0 2.8-2.2 5-5 5h-50c-2.8 0-5-2.2-5-5V5c0-2.8 2.2-5 5-5h50c2.8 0 5 2.2 5 5v30z"/>
    <path d="M481.8 6.3h59v8h-59v-8z" class="st19"/>
    <path d="M487.8 18.3h36v8h-36v-8z" class="st2"/>
    <path d="M490.8 21.3h29v2h-29v-2z" class="st19"/>
    <path fill="#dfdedd" d="M535 1c2.2 0 4 1.8 4 4v30c0 2.2-1.8 4-4 4h-50c-2.2 0-4-1.8-4-4V5c0-2.2 1.8-4 4-4h50m0-1h-50c-2.8 0-5 2.2-5 5v30c0 2.8 2.2 5 5 5h50c2.8 0 5-2.2 5-5V5c0-2.8-2.2-5-5-5z"/>
    <path d="M526.8 18.3h8v8h-8v-8z" class="st2"/>
    <path d="M527.8 21.3h6v2h-6v-2z" class="st19"/>
    <circle cx="530.2" cy="22.2" r="7.8" fill="none" stroke="#e9564b" stroke-miterlimit="10" stroke-width="2"/>
  </g>
</svg>
