<svg xmlns="http://www.w3.org/2000/svg" viewBox="0 0 254 52">
  <path d="M97.6 10L82.3 25.9l16.6 16.9v.3h-6.7L77.4 28v15.2h-5.3V9.9h5.3v14.4L91 9.9h6.6v.1zM127.2 9.9v28.3h17.5v4.9h-22.9V9.9h5.4zM200 26.6c0 9-5.5 17.2-17 17.2-11.6 0-17-8.4-17-17.2 0-10.1 7.1-17.4 17.1-17.4 11.3.1 16.9 8.5 16.9 17.4zm-17.1 12.3c8.3 0 11.7-5.8 11.7-12.2 0-6.1-3.5-12.5-11.6-12.6-7.7 0-11.8 5.4-11.8 12.6.1 5.9 3.5 12.2 11.7 12.2zM248.2 33.5V9.9h5.3v33.3h-4l-18.9-23.5v23.5h-5.4V9.9h4.1l18.9 23.6z" fill="#fff"/>
  <g>
    <linearGradient id="G1" x1="-68.6" x2="26.899" y1="87.972" y2="-14.233" gradientUnits="userSpaceOnUse">
      <stop offset="0" stop-color="#00074d"/>
      <stop offset="1" stop-color="#143da1"/>
    </linearGradient>
    <circle cx="7" cy="7.1" r="7" fill="url(#G1)"/>
    <linearGradient id="G2" x1="-50.558" x2="44.941" y1="104.83" y2="2.625" gradientUnits="userSpaceOnUse">
      <stop offset="0" stop-color="#00074d"/>
      <stop offset="1" stop-color="#143da1"/>
    </linearGradient>
    <circle cx="7" cy="43.2" r="7" fill="url(#G2)"/>
    <linearGradient id="G3" x1="-43.037" x2="52.253" y1="111.482" y2="9.501" gradientUnits="userSpaceOnUse">
      <stop offset="0" stop-color="#00074d"/>
      <stop offset="1" stop-color="#143da1"/>
    </linearGradient>
    <path fill="url(#G3)" d="M39.1 35.5c-4.8-.6-9.1-4.1-9.7-9-.7-5 2.6-9.9 7.4-11.3 1.2-.4 2.4-.4 3.6-.8 1.2-.4 2.3-1 3.2-1.9 2-2.1 2.6-5.3 1.5-7.9-1.7-4.2-7-5.8-10.8-3.4-2.4 1.5-3.1 4-3.5 6.6-.4 2.9-1.4 5.5-3.7 7.4-2.3 2-5.1 2.1-8 2.7-2.5.6-4.6 2.2-5.5 4.7-.9 2.6-.4 5.6 1.5 7.6 2 2.1 4.9 2.2 7.6 3 2.7.7 5.1 2.3 6.6 4.8 1.4 2.5 1.2 5.3 2.3 7.9 2.1 5.1 9.2 6.1 12.6 1.7 2.8-3.6 1.6-9.2-2.5-11.2-.9-.5-1.9-.7-2.9-.8.3 0 .7.1 1 .1-.3-.1-.5-.2-.7-.2-5.5-.7 1.8.2 0 0z"/>
  </g>
</svg>
