<svg xmlns="http://www.w3.org/2000/svg" viewBox="0 0 512 512">
  <path fill="#e21514" d="M511.979 256.05c0 141.4-114.6 256-256 256s-256-114.6-256-256 114.6-256 256-256c141.4-.1 256 114.6 256 256z"/>
  <path fill="#fff" d="M255.98 83.447c-50.85 0-125.252 19.95-153.903 116.552-5.7 19.05-7.95 37.8-7.65 55.95-.3 18.151 1.8 37.051 7.5 56.102 28.8 96.601 103.202 116.402 154.053 116.402 50.251 0 125.102-19.95 153.903-116.402 5.7-19.05 7.95-37.95 7.65-56.101.3-18.15-1.95-36.9-7.65-55.951C381.233 103.397 306.23 83.447 255.98 83.447zm.15 26.55c6.45.15 24.45 1.65 35.25 10.35 14.55 11.7 33.601 36.451 33.901 135.603-.3 99.152-19.35 123.902-33.9 135.752-10.8 8.7-28.8 10.05-35.25 10.2-6.451-.15-24.451-1.65-35.402-10.2-14.55-11.7-33.6-36.45-33.9-135.752.3-99.152 19.35-123.902 33.9-135.602 10.8-8.7 28.801-10.05 35.401-10.35z"/>
</svg>
